
#492 - Puerto Rico

owner = U05
controller = U05
add_core = U05
add_core = U24
culture = shasoura
religion = khetist

hre = no

base_tax = 2
base_production = 2
base_manpower = 2

trade_goods = fish

capital = ""

is_city = yes










