namespace = orcish_tolerance_events

country_event = {
	id = orcish_tolerance_events.0
	title = orcish_tolerance_events.1.d
	desc = orcish_tolerance_events.1.d
	picture = BORDER_TENSION_eventPicture


	hidden = yes
	is_triggered_only = yes

	trigger = {
		NOT = { culture_group = orcish }
		any_owned_province = {
			has_orcish_minority_trigger = yes
		}
	}
	
	mean_time_to_happen = {
		days = 1
		modifier = {
			factor = 5
			has_country_modifier = racial_focus_orcish
		}
	}

	option = {
		random_list = {
			# Orcish Raiders
			1 = {
				trigger = {
					any_owned_province = {
						NOT = { has_province_modifier = orcish_harsh_punishment_prov }
						NOT = { has_province_modifier = orcish_normal_punishment_prov }
						has_orcish_minority_trigger = yes
					}
					current_age = age_of_discovery
				}
				modifier = {
					factor = 0.5
					high_tolerance_orcish_race_trigger = yes
				}
				modifier = {
					factor = 1.5
					NOT = { stability = 0 }
				}
				country_event = {
					id = orcish_tolerance_events.1
				}
			}
			# Orcish Bandits
			1 = {
				trigger = {
					any_owned_province = {
						NOT = { has_province_modifier = orcish_bandits_punished }
						NOT = { has_province_modifier = orcish_bandits_run_free }
						NOT = { has_province_modifier = orcish_bandits_run_free_gov_support }
						has_orcish_minority_trigger = yes
					}
					NOT = { current_age = age_of_discovery }
				}
				modifier = {
					factor = 0.5
					high_tolerance_orcish_race_trigger = yes
				}
				modifier = {
					factor = 1.5
					NOT = { stability = 0 }
				}
				country_event = {
					id = orcish_tolerance_events.2
				}
			}
			# Orcish Recruit
			2 = {
				trigger = {
					any_owned_province = {
						NOT = { has_province_modifier = orcish_recruitment_province }
						NOT = { has_province_modifier = orcish_angry_about_assumptions }
						has_orcish_minority_trigger = yes
					}
					is_at_war = yes
				}
				country_event = {
					id = orcish_tolerance_events.3
				}
			}
			# Orcish Revolt
			1 = {
				trigger = {
					any_owned_province = {
						OR = {
							has_province_modifier = orcish_minority_oppressed_large
							has_province_modifier = orcish_majority_oppressed
						}
					}
					current_age = age_of_discovery
					NOT = { 
						medium_tolerance_orcish_race_trigger = yes
						high_tolerance_orcish_race_trigger = yes
					}
				}
				country_event = {
					id = orcish_tolerance_events.4
				}
			}
			# Orcish Slave Revolt
			1 = {
				trigger = {
					any_owned_province = {
						has_orcish_minority_trigger = yes
						trade_goods = slaves
					}
					NOT = { high_tolerance_orcish_race_trigger = yes }
				}
				country_event = {
					id = orcish_tolerance_events.5
				}
			}
			# Orcish Merchant Buys slaves
			1 = {
				trigger = {
					any_owned_province = {
						has_orcish_minority_trigger = yes
						trade_goods = slaves
					}
					OR = {
						medium_tolerance_orcish_race_trigger = yes
						high_tolerance_orcish_race_trigger = yes
					}
					NOT = { current_age = age_of_discovery }
				}
				country_event = {
					id = orcish_tolerance_events.6
				}
			}
			# Orcish Slaver Demands Recognition
			1 = {
				trigger = {
					any_owned_province = {
						has_orcish_minority_trigger = yes
						NOT = { has_province_modifier = upset_local_slaveholders }
					}
					NOT = { current_age = age_of_discovery }
				}
				modifier = {
					factor = 2
					medium_tolerance_orcish_race_trigger = yes
				}
				modifier = {
					factor = 1.5
					high_tolerance_orcish_race_trigger = yes
				}
				country_event = {
					id = orcish_tolerance_events.7
				}
			}
			# Orcish Minister
			1 = {
				modifier = {
					factor = 1.5
					medium_tolerance_orcish_race_trigger = yes
				}
				modifier = {
					factor = 2
					high_tolerance_orcish_race_trigger = yes
				}
				country_event = {
					id = orcish_tolerance_events.8
				}
			}
			#Clan Courts
			1 = {
				country_event = {
					id = orcish_tolerance_events.9
				}
			}
			#Orcish pop turns into a half-orc
			1 = {
				trigger = {
					any_owned_province = {
						has_any_orcish_pop_trigger = yes
						has_any_human_pop_trigger = yes
					}
					medium_tolerance_orcish_race_trigger = yes
				}
				modifier = {
					factor = 2
					high_tolerance_orcish_race_trigger = yes
				}
				country_event = {
					id = orcish_tolerance_events.10
				}
			}
			#Orcish Ambushers
			1 = {
				trigger = {
					OR = {
						current_age = age_of_discovery
						current_age = age_of_reformation
					}
					NOT = {
						high_tolerance_orcish_race_trigger = yes
					}
				}
				modifier = {
					factor = 2
					NOT = { low_tolerance_orcish_race_trigger = yes }
				}
				modifier = {
					factor = 2
					NOT = { stability = 0 }
				}
				country_event = {
					id = orcish_tolerance_events.11
				}
			}
			## TODO
			#Orcish Soldiers of Fortune
			#Orcish Freeman calls for liberation
			#Orc Bands Seek a fight
		}
	}
}

# Orcish Raiders
country_event = {
	id = orcish_tolerance_events.1
	title = orcish_tolerance_events.1.t
	# Reason for property damage:
	desc = {	# Spokesperson insult Orcs
		trigger = { NOT = { has_country_flag = orc_local_conflict_2 } }
		desc = orcish_tolerance_events.1.d
	}
	desc = {	# Barfight
		trigger = { has_country_flag = orc_local_conflict_2 }
		desc = orcish_tolerance_events.1.db
	}
	desc = {	# Raid
		trigger = { has_country_flag = orc_local_conflict_3 }
		desc = orcish_tolerance_events.1.dc
	}
	picture = BORDER_TENSION_eventPicture
	
	is_triggered_only = yes
	
	trigger = {
		NOT = { culture_group = orcish }	# I mean I'm sure orcs have to take care of this as well
		any_owned_province = {
			NOT = { has_province_modifier = orcish_harsh_punishment_prov }
			NOT = { has_province_modifier = orcish_normal_punishment_prov }
			has_orcish_minority_trigger = yes
		}
	}
	
	mean_time_to_happen = {
		days = 1
	}
	
	immediate = {
		hidden_effect = {
			random_list = {
				60 = { }
				20 = { set_country_flag = orc_local_conflict_2 }
				20 = { set_country_flag = orc_local_conflict_3 }
			}
			random_owned_province = {
				limit = {
					NOT = { has_province_modifier = orcish_harsh_punishment_prov }
					NOT = { has_province_modifier = orcish_normal_punishment_prov }
					has_orcish_minority_trigger = yes
				}
				save_event_target_as = orcish_causing_havoc_province
			}
			event_target:orcish_causing_havoc_province = {
				add_devastation = 10
				if = {
					limit = {
						owner = {
							NOT = { has_country_flag = orc_loot_burghers }
							NOT = { has_country_flag = orc_loot_church }
							NOT = { has_country_flag = orc_loot_nobles }
						}
						has_estate = no
					}
					owner = {
						random_list = {
							40 = { set_country_flag = orc_loot_burghers }
							30 = { set_country_flag = orc_loot_church }
							30 = { set_country_flag = orc_loot_nobles }
						}
					}
				}
			}
		}
	}
	
	after = {
		hidden_effect = {
			clr_country_flag = orc_loot_burghers
			clr_country_flag = orc_loot_nobles
			clr_country_flag = orc_loot_church
			clr_country_flag = orc_local_conflict_2
			clr_country_flag = orc_local_conflict_3
		}
	}
	
	option = {	# Punish them harshly
		name = orcish_tolerance_events.1.a
		ai_chance = {
			factor = 50
			modifier = {
				factor = 1.5
				has_country_flag = orc_loot_church
				has_dlc = "The Cossacks"
				NOT = {
					estate_loyalty = {
						estate = estate_church
						loyalty = 40
					}
				}
			}
			modifier = {
				factor = 1.5
				has_country_flag = orc_loot_nobles
				has_dlc = "The Cossacks"
				NOT = {
					estate_loyalty = {
						estate = estate_nobles
						loyalty = 40
					}
				}
			}
			modifier = {
				factor = 1.5
				has_country_flag = orc_loot_burghers
				has_dlc = "The Cossacks"
				NOT = {
					estate_loyalty = {
						estate = estate_burghers
						loyalty = 40
					}
				}
			}
			modifier = {
				factor = 0.5
				wants_to_maintain_tolerance_orcish = yes
			}
			modifier = {
				factor = 0.1
				wants_to_increase_tolerance_orcish = yes
			}
		}
		add_prestige = 5
		add_mil_power = -20
		small_decrease_of_orcish_tolerance_effect = yes
		event_target:orcish_causing_havoc_province = {
			add_province_modifier = {
				name = orcish_harsh_punishment_prov
				duration = 3650
			}
		}
		trigger_switch = {
			on_trigger = has_country_flag
			orc_loot_burghers = {
				if = {
					limit = {
						has_estate = estate_burghers
					}
					add_estate_loyalty = {
						estate = estate_burghers
						loyalty = 5
					}
				}
			}
			orc_loot_church = {
				if = {
					limit = {
						has_estate = estate_church
					}
					add_estate_loyalty = {
						estate = estate_church
						loyalty = 5
					}
				}
			}
			orc_loot_nobles = {
				if = {
					limit = {
						has_estate = estate_nobles
					}
					add_estate_loyalty = {
						estate = estate_nobles
						loyalty = 5
					}
				}
			}
		}
	}
	
	option = {	# Just punish them moderately
		name = orcish_tolerance_events.1.b
		ai_chance = {
			factor = 50
		}
		add_mil_power = -10
		event_target:orcish_causing_havoc_province = {
			add_province_modifier = {
				name = orcish_normal_punishment_prov
				duration = 3650
			}
		}
	}
	
	option = {	# It was clearly out of their control
		name = orcish_tolerance_events.1.c
		ai_chance = {
			factor = 50
			modifier = {
				factor = 0.5
				has_country_flag = orc_loot_church
				has_dlc = "The Cossacks"
				NOT = {
					estate_loyalty = {
						estate = estate_church
						loyalty = 40
					}
				}
			}
			modifier = {
				factor = 0.5
				has_country_flag = orc_loot_nobles
				has_dlc = "The Cossacks"
				NOT = {
					estate_loyalty = {
						estate = estate_nobles
						loyalty = 40
					}
				}
			}
			modifier = {
				factor = 0.5
				has_country_flag = orc_loot_burghers
				has_dlc = "The Cossacks"
				NOT = {
					estate_loyalty = {
						estate = estate_burghers
						loyalty = 40
					}
				}
			}
			modifier = {
				factor = 0.5
				wants_to_maintain_tolerance_orcish = yes
			}
			modifier = {
				factor = 0.1
				wants_to_decrease_tolerance_orcish = yes
			}
		}
		add_prestige = -10
		small_increase_of_orcish_tolerance_effect = yes
		trigger_switch = {
			on_trigger = has_country_flag
			orc_loot_burghers = {
				reduce_estate_burghers_loyalty_effect = yes
			}
			orc_loot_church = {
				reduce_estate_church_loyalty_effect = yes
			}
			orc_loot_nobles = {
				reduce_estate_nobles_loyalty_effect = yes
			}
		}
	}
	
	option = {	# Punish them and their relatives harshly
		name = orcish_tolerance_events.1.e
		trigger = { ruler_has_personality = cruel_personality }
		highlight = yes
		ai_chance = {
			factor = 100
			modifier = {
				factor = 1.5
				has_country_flag = orc_loot_church
				has_dlc = "The Cossacks"
				NOT = {
					estate_loyalty = {
						estate = estate_church
						loyalty = 40
					}
				}
			}
			modifier = {
				factor = 1.5
				has_country_flag = orc_loot_nobles
				has_dlc = "The Cossacks"
				NOT = {
					estate_loyalty = {
						estate = estate_nobles
						loyalty = 40
					}
				}
			}
			modifier = {
				factor = 1.5
				has_country_flag = orc_loot_burghers
				has_dlc = "The Cossacks"
				NOT = {
					estate_loyalty = {
						estate = estate_burghers
						loyalty = 40
					}
				}
			}
			modifier = {
				factor = 0.5
				wants_to_maintain_tolerance_orcish = yes
			}
			modifier = {
				factor = 0.1
				wants_to_increase_tolerance_orcish = yes
			}
		}
		add_prestige = 10
		add_mil_power = -25
		small_decrease_of_orcish_tolerance_effect = yes
		event_target:orcish_causing_havoc_province = {
			area = {
				limit = {
					NOT = { has_province_modifier = orcish_harsh_punishment_prov }
					NOT = { has_province_modifier = orcish_normal_punishment_prov }
					OR = {
						has_orcish_minority_trigger = yes
						culture_group = orcish
					}
				}
				add_province_modifier = {
					name = orcish_harsh_punishment_prov
					duration = 1825
				}
			}
		}
		trigger_switch = {
			on_trigger = has_country_flag
			orc_loot_burghers = {
				add_estate_burghers_loyalty_effect = yes
			}
			orc_loot_church = {
				add_estate_church_loyalty_effect = yes
			}
			orc_loot_nobles = {
				add_estate_nobles_loyalty_effect = yes
			}
		}
	}
}

# Orc Bandits
country_event = {
	id = orcish_tolerance_events.2
	title = orcish_tolerance_events.2.t
	desc = orcish_tolerance_events.2.d
	picture = BORDER_TENSION_eventPicture
	
	trigger = {
		NOT = { culture_group = orcish }
		any_owned_province = {
			NOT = { has_province_modifier = orcish_bandits_punished }
			NOT = { has_province_modifier = orcish_bandits_run_free }
			NOT = { has_province_modifier = orcish_bandits_run_free_gov_support }
			has_orcish_minority_trigger = yes
		}
	}
	
	is_triggered_only = yes
	
	mean_time_to_happen = {
		days = 1
	}
	
	immediate = {
		hidden_effect = {
			random_owned_province = {
				limit = {
					NOT = { has_province_modifier = orcish_bandits_punished }
					NOT = { has_province_modifier = orcish_bandits_run_free }
					NOT = { has_province_modifier = orcish_bandits_run_free_gov_support }
					has_orcish_minority_trigger = yes
				}
				save_event_target_as = orcish_bandit_province
			}
		}
	}
	
	option = {		# This is an issue we can ignore
		name = orcish_tolerance_events.2.a
		ai_chance = {
			factor = 50
			modifier = {
				factor = 0.8
				NOT = { prestige = 0 }
			}
			modifier = {
				factor = 0.5
				has_dlc = "The Cossacks"
				has_estate = estate_nobles
				NOT = {
					estate_loyalty = {
						estate = estate_nobles
						loyalty = 40
					}
				}
			}
			modifier = {
				factor = 0.5
				has_dlc = "The Cossacks"
				has_estate = estate_burghers
				NOT = {
					estate_loyalty = {
						estate = estate_burghers
						loyalty = 40
					}
				}
			}
		}
		add_prestige = -5
		reduce_estate_nobles_loyalty_effect = yes
		reduce_estate_burghers_loyalty_effect = yes
		event_target:orcish_bandit_province = {
			area = {
				limit = {
					owned_by = ROOT
					NOT = { has_province_modifier = orcish_bandits_punished }
					NOT = { has_province_modifier = orcish_bandits_run_free }
					NOT = { has_province_modifier = orcish_bandits_run_free_gov_support }
					has_orcish_minority_trigger = yes
				}
				add_province_modifier = {
					name = orcish_bandits_run_free
					duration = 1825
				}
			}
		}
	}
	option = {	# We need to punish them!
		name = orcish_tolerance_events.2.b
		ai_chance = {
			factor = 50
			modifier = {
				factor = 0.5
				wants_to_maintain_tolerance_orcish = yes
			}
			modifier = {
				factor = 0.1
				wants_to_increase_tolerance_orcish = yes
			}
		}
		add_mil_power = -10
		if = {
			limit = {
				max_manpower = 20
			}
			add_manpower = -1.5
		}
		if = {
			limit = {
				NOT = { max_manpower = 20 }
			}
			add_yearly_manpower = -0.75
		}
		if = {
			limit = { has_estate = estate_nobles }
			add_estate_loyalty = {
				estate = estate_nobles
				loyalty = 5
			}
		}
		if = {
			limit = { has_estate = estate_burghers }
			add_estate_loyalty = {
				estate = estate_burghers
				loyalty = 5
			}
		}
		small_decrease_of_orcish_tolerance_effect = yes
		event_target:orcish_bandit_province = {
			area = {
				limit = {
					owned_by = ROOT
					NOT = { has_province_modifier = orcish_bandits_punished }
					NOT = { has_province_modifier = orcish_bandits_run_free }
					NOT = { has_province_modifier = orcish_bandits_run_free_gov_support }
					has_orcish_minority_trigger = yes
				}
				add_province_modifier = {
					name = orcish_bandits_punished
					duration = 1825
				}
			}
		}
	}
	option = {		# Hire them to collect our taxes
		name = orcish_tolerance_events.2.c
		trigger = {
			NOT = { has_country_modifier = minority_bandits_run_free_gov_support_global }
			ruler_has_personality = embezzler_personality
		}
				highlight = yes
		ai_chance = {
			factor = 100
			modifier = {
				factor = 0.8
				NOT = { prestige = 0 }
			}
			modifier = {
				factor = 0.5
				has_dlc = "The Cossacks"
				has_estate = estate_nobles
				NOT = {
					estate_loyalty = {
						estate = estate_nobles
						loyalty = 45
					}
				}
			}
			modifier = {
				factor = 0.5
				has_dlc = "The Cossacks"
				has_estate = estate_burghers
				NOT = {
					estate_loyalty = {
						estate = estate_burghers
						loyalty = 45
					}
				}
			}
		}
		add_prestige = -10
		if = {
			limit = { has_estate = estate_nobles }
			add_estate_loyalty = {
				estate = estate_nobles
				loyalty = -15
			}
		}
		if = {
			limit = { has_estate = estate_burghers }
			add_estate_loyalty = {
				estate = estate_burghers
				loyalty = -15
			}
		}
		add_country_modifier = {
			name = minority_bandits_run_free_gov_support_global
			duration = 1095
		}
		event_target:orcish_bandit_province = {
			area = {
				limit = {
					owned_by = ROOT
					NOT = { has_province_modifier = orcish_bandits_punished }
					NOT = { has_province_modifier = orcish_bandits_run_free }
					NOT = { has_province_modifier = orcish_bandits_run_free_gov_support }
				}
				add_province_modifier = {
					name = orcish_bandits_run_free_gov_support
					duration = 1825
				}
			}
		}
	}
}

# ????
country_event = {
	id = orcish_tolerance_events.3
	title = orcish_tolerance_events.3.t
	desc = orcish_tolerance_events.3.d
	picture = MILITARY_CAMP_eventPicture
	
	trigger = {
		NOT = { culture_group = orcish }
		any_owned_province = {
			NOT = { has_province_modifier = orcish_recruitment_province }
			NOT = { has_province_modifier = orcish_angry_about_assumptions }
			has_orcish_minority_trigger = yes
		}
		is_at_war = yes
	}
	
	is_triggered_only = yes
	
	mean_time_to_happen = {
		days = 1
	}
	
	immediate = {
		hidden_effect = {
			random_owned_province = {
				limit = {
					NOT = { has_province_modifier = orcish_recruitment_province }
					NOT = { has_province_modifier = orcish_angry_about_assumptions }
					has_orcish_minority_trigger = yes
				}
				save_event_target_as = orcish_recruitment_province
			}
			random_owned_province = {
				limit = {
					NOT = { has_province_modifier = orcish_recruitment_province }
					NOT = { has_province_modifier = orcish_angry_about_assumptions }
					has_orcish_minority_trigger = yes
					is_in_capital_area = yes
				}
				save_event_target_as = orcish_recruitment_province
			}
		}
	}
	
	option = {	# Recruit them
		name = orcish_tolerance_events.3.a
		ai_chance = {
			factor = 50
			modifier = {
				factor = 0.5
				wants_to_maintain_tolerance_orcish = yes
			}
			modifier = {
				factor = 0.1
				wants_to_decrease_tolerance_orcish = yes
			}
		}
		add_years_of_income = -0.05
		if = {
			limit = {
				max_manpower = 20
			}
			add_manpower = 1
		}
		if = {
			limit = {
				NOT = { max_manpower = 20 }
			}
			add_yearly_manpower = 0.5
		}
		small_increase_of_orcish_tolerance_effect = yes
		event_target:orcish_recruitment_province = {
			area = {
				limit = {
					owned_by = ROOT
					NOT = { has_province_modifier = orcish_recruitment_province }
					NOT = { has_province_modifier = orcish_angry_about_assumptions }
					has_orcish_minority_trigger = yes
				}
				add_province_modifier = {
					name = orcish_recruitment_province
					duration = 1825
				}
			}
		}
	}
	option = {	# We can't afford their services
		name = orcish_tolerance_events.3.b
		ai_chance = {
			factor = 50
		}
	}
	option = {	# It'd like hiring our enemies to tell us of their plans...
		name = orcish_tolerance_events.3.c
		ai_chance = {
			factor = 50
			modifier = {
				factor = 0.5
				wants_to_maintain_tolerance_orcish = yes
			}
			modifier = {
				factor = 0.1
				wants_to_increase_tolerance_orcish = yes
			}
		}
		add_prestige = 5
		small_decrease_of_orcish_tolerance_effect = yes
		event_target:orcish_recruitment_province = {
			area = {
				limit = {
					owned_by = ROOT
					NOT = { has_province_modifier = orcish_recruitment_province }
					NOT = { has_province_modifier = orcish_angry_about_assumptions }
					has_orcish_minority_trigger = yes
				}
				add_province_modifier = {
					name = orcish_angry_about_assumptions
					duration = 1825
				}
			}
		}
	}
}

# Orcish revolt
country_event = {
	id = orcish_tolerance_events.4
	title = orcish_tolerance_events.4.t
	desc = orcish_tolerance_events.4.d
	picture = MILITARY_CAMP_eventPicture
	
	is_triggered_only = yes
	
	immediate = {
		random_owned_province = {
			limit = {
				OR = {
					has_province_modifier = orcish_minority_oppressed_large
					has_province_modifier = orcish_majority_oppressed
				}
			}
			save_event_target_as = orcish_revolt_province
		}
	}
	
	# Savages
	option = {
		name = orcish_tolerance_events.4.a
		ai_chance = {
			factor = 50
			modifier = {
				factor = 0.1
				wants_to_increase_tolerance_orcish = yes
			}
		}
		event_target:orcish_revolt_province = {
			if = {
				limit = { has_orcish_minority_trigger = yes }
				spawn_rebels = {
					size = 1
					type = anti_tax_rebels
				}
			}
			else = {
				spawn_rebels = {
					size = 1
					type = nationalist_rebels
				}
			}
		}
		medium_decrease_of_orcish_tolerance_effect = yes
	}
	
	# Leave them alone
	option = {
		name = orcish_tolerance_events.4.b
		ai_chance = {
			factor = 50
			modifier = {
				factor = 0.5
				wants_to_maintain_tolerance_orcish = yes
			}
			modifier = {
				factor = 0.1
				wants_to_decrease_tolerance_orcish = yes
			}
		}
		trigger = {
			NOT = {
				has_country_modifier = racial_pop_orcish_purge
				has_country_modifier = racial_pop_orcish_expulsion
			}
		}
		event_target:orcish_revolt_province = {
			add_local_autonomy = 50
		}
		small_increase_of_orcish_tolerance_effect = yes
	}
}

# Orcish Slave Revolt
country_event = {
	id = orcish_tolerance_events.5
	title = orcish_tolerance_events.5.t
	desc = orcish_tolerance_events.5.d
	picture = MILITARY_CAMP_eventPicture
	
	is_triggered_only = yes
	
	immediate = {
		random_owned_province = {
			limit = {
				has_orcish_minority_trigger = yes
				trade_goods = slaves
			}
			save_event_target_as = orcish_revolt_province
		}
	}
	
	# Let the Slavers deal with their own problems
	option = {
		name = orcish_tolerance_events.5.a
		ai_chance = {
			factor = 50
			modifier = {
				factor = 0.5
				wants_to_maintain_tolerance_orcish = yes
			}
			modifier = {
				factor = 0.1
				wants_to_increase_tolerance_orcish = yes
			}
		}
		event_target:orcish_revolt_province = {
			area = {
				add_devastation = 10
			}
		}
	}
	
	# Send some troops to quell the revolt
	option = {
		name = orcish_tolerance_events.5.b
		ai_chance = {
			factor = 50
			modifier = {
				factor = 0.5
				wants_to_maintain_tolerance_orcish = yes
			}
			modifier = {
				factor = 0.1
				wants_to_increase_tolerance_orcish = yes
			}
		}
		medium_decrease_of_orcish_tolerance_effect = yes
		event_target:orcish_revolt_province = {
			area = {
				add_devastation = 5
			}
		}
	}
	
	# Make an example of the ringleaders
	option = {
		name = orcish_tolerance_events.5.c
		ai_chance = {
			factor = 50
			modifier = {
				factor = 5
				wants_to_decrease_tolerance_orcish = yes
			}
		}
		large_decrease_of_orcish_tolerance_effect = yes
	}
}

# Orcish Adventurer Buys slaves
country_event = {
	id = orcish_tolerance_events.6
	title = orcish_tolerance_events.6.t
	desc = orcish_tolerance_events.6.d
	picture = MILITARY_CAMP_eventPicture
	
	is_triggered_only = yes
	
	# Fair enough
	option = {
		name = orcish_tolerance_events.6.a
		ai_chance = {
			factor = 50
			modifier = {
				factor = 0.1
				wants_to_decrease_tolerance_orcish = yes
			}
		}
		
		add_treasury = 100
	}
	
	# Ban them from purchasing slaves
	option = {
		name = orcish_tolerance_events.6.a
		ai_chance = {
			factor = 50
			modifier = {
				factor = 0.1
				wants_to_decrease_tolerance_orcish = yes
			}
		}
		
		small_decrease_of_orcish_tolerance_effect = yes
		add_prestige = -5
		if = {
			limit = { has_estate = estate_adventurers }
			add_estate_loyalty = {
				estate = estate_adventurers
				loyalty = -5
			}
		}
	}
	
	# He has clearly stolen this gold, imprison him and seize it
	option = {
		name = orcish_tolerance_events.6.a
		ai_chance = {
			factor = 50
			modifier = {
				factor = 0.1
				wants_to_decrease_tolerance_orcish = yes
			}
		}
		
		largest_decrease_of_orcish_tolerance_effect = yes
		add_prestige = -5
		add_treasury = 200
	}
}

# Orcish Slaver Demands Recognition
country_event = {
	id = orcish_tolerance_events.7
	title = orcish_tolerance_events.7.t
	desc = orcish_tolerance_events.7.d
	picture = MILITARY_CAMP_eventPicture
	
	is_triggered_only = yes
	
	immediate = {
		random_owned_province = {
			limit = { 
				has_orcish_minority_trigger = yes
				NOT = {
					has_province_modifier = upset_local_slaveholders
				}
			}
			save_event_target_as = orcish_slaver_province
		}
	}
	
	# Give Special Privileges to protect them
	option = {
		name = orcish_tolerance_events.7.a
		ai_chance = {
			factor = 50
			modifier = {
				factor = 0.1
				wants_to_decrease_tolerance_orcish = yes
			}
			modifier = {
				factor = 0.5
				wants_to_maintain_tolerance_orcish = yes
			}
		}
		small_increase_of_orcish_tolerance_effect = yes
		event_target:orcish_slaver_province = {
			add_province_modifier = {
				name = upset_local_slaveholders
				duration = 1825
			}
		}
	}
	
	# Stay out of it
	option = {
		name = orcish_tolerance_events.7.b
		ai_chance = {
			factor = 50
		}
	}
	
	# Orcs are slaves
	option = {
		name = orcish_tolerance_events.7.b
		ai_chance = {
			factor = 50
			modifier = {
				factor = 0.1
				wants_to_increase_tolerance_orcish = yes
			}
			modifier = {
				factor = 0.5
				wants_to_maintain_tolerance_orcish = yes
			}
		}
		small_decrease_of_orcish_tolerance_effect = yes
	}
}

# Orcish Minister
country_event = {
	id = orcish_tolerance_events.8
	title = orcish_tolerance_events.8.t
	desc = orcish_tolerance_events.8.d
	picture = EXPLORERS_eventPicture
	
	is_triggered_only = yes

	# If you have a orcish culture province, that's the one the advisor comes from
	immediate = {
		hidden_effect = {
			if = {
				limit = {
					any_owned_province = {
						culture_group = orcish
					}
				}
				random_owned_province = {
					limit = { culture_group = orcish }
					save_event_target_as = orcish_advisor_culture_province
				}
				set_country_flag = orcish_advisor_culture_set
			}
		}
	}

	# Recruit the orc
	option = {
		name = orcish_tolerance_events.8.a
		ai_chance = {
			factor = 50
			modifier = {
				factor = 0.5
				wants_to_maintain_tolerance_orcish = yes
			}
			modifier = {
				factor = 0.1
				wants_to_decrease_tolerance_orcish = yes
			}
		}
		small_increase_of_orcish_tolerance_effect = yes
		if = {
			limit = { has_country_flag = orcish_advisor_culture_set }
			if = {
				limit = { monthly_income = 50 }
				random_list = {
					1 = {
						define_advisor = {
							type = army_reformer
							culture = event_target:orcish_advisor_culture_province
							religion = event_target:orcish_advisor_culture_province
							skill = 3
							discount = yes
						}
					}
					1 = {
						define_advisor = {
							type = commandant
							culture = event_target:orcish_advisor_culture_province
							religion = event_target:orcish_advisor_culture_province
							skill = 3
							discount = yes
						}
					}
				}
			}
			else_if = {
				limit = { monthly_income = 25 }
				random_list = {
					1 = {
						define_advisor = {
							type = army_reformer
							culture = event_target:orcish_advisor_culture_province
							religion = event_target:orcish_advisor_culture_province
							skill = 2
							discount = yes
						}
					}
					1 = {
						define_advisor = {
							type = commandant
							culture = event_target:orcish_advisor_culture_province
							religion = event_target:orcish_advisor_culture_province
							skill = 2
							discount = yes
						}
					}
				}
			}
			else = {
				random_list = {
					1 = {
						define_advisor = {
							type = army_reformer
							culture = event_target:orcish_advisor_culture_province
							religion = event_target:orcish_advisor_culture_province
							skill = 1
							discount = yes
						}
					}
					1 = {
						define_advisor = {
							type = commandant
							culture = event_target:orcish_advisor_culture_province
							religion = event_target:orcish_advisor_culture_province
							skill = 1
							discount = yes
						}
					}
				}
			}
		}
		else_if = {
			limit = { 
				capital_scope = {
					OR = {
						continent = europe
					}
				} 
			}
			if = {
				limit = { monthly_income = 50 }
				random_list = {
					1 = {
						define_advisor = {
							type = army_reformer
							culture = green_orc
							skill = 3
							discount = yes
						}
					}
					1 = {
						define_advisor = {
							type = commandant
							culture = green_orc
							skill = 3
							discount = yes
						}
					}
				}
			}
			else_if = {
				limit = { monthly_income = 25 }
				random_list = {
					1 = {
						define_advisor = {
							type = army_reformer
							culture = green_orc
							skill = 2
							discount = yes
						}
					}
					1 = {
						define_advisor = {
							type = commandant
							culture = green_orc
							skill = 2
							discount = yes
						}
					}
				}
			}
			else = {
				random_list = {
					1 = {
						define_advisor = {
							type = army_reformer
							culture = green_orc
							skill = 1
							discount = yes
						}
					}
					1 = {
						define_advisor = {
							type = commandant
							culture = green_orc
							skill = 1
							discount = yes
						}
					}
				}
			}
		}
		else_if = {
			limit = { 
				capital_scope = {
					superregion = bulwar_superregion
					continent = serpentspine
				} 
			}
			if = {
				limit = { monthly_income = 50 }
				random_list = {
					1 = {
						define_advisor = {
							type = army_reformer
							culture = black_orc
							skill = 3
							discount = yes
						}
					}
					1 = {
						define_advisor = {
							type = commandant
							culture = black_orc
							skill = 3
							discount = yes
						}
					}
				}
			}
			else_if = {
				limit = { monthly_income = 25 }
				random_list = {
					1 = {
						define_advisor = {
							type = army_reformer
							culture = black_orc
							skill = 2
							discount = yes
						}
					}
					1 = {
						define_advisor = {
							type = commandant
							culture = black_orc
							skill = 2
							discount = yes
						}
					}
				}
			}
			else = {
				random_list = {
					1 = {
						define_advisor = {
							type = army_reformer
							culture = black_orc
							skill = 1
							discount = yes
						}
					}
					1 = {
						define_advisor = {
							type = commandant
							culture = black_orc
							skill = 1
							discount = yes
						}
					}
				}
			}
		}
		else_if = {
			limit = { 
				capital_scope = {
					continent = asia
				}
			}
			if = {
				limit = { monthly_income = 50 }
				random_list = {
					1 = {
						define_advisor = {
							type = army_reformer
							culture = brown_orc
							skill = 3
							discount = yes
						}
					}
					1 = {
						define_advisor = {
							type = commandant
							culture = brown_orc
							skill = 3
							discount = yes
						}
					}
				}
			}
			else_if = {
				limit = { monthly_income = 25 }
				random_list = {
					1 = {
						define_advisor = {
							type = army_reformer
							culture = brown_orc
							skill = 2
							discount = yes
						}
					}
					1 = {
						define_advisor = {
							type = commandant
							culture = brown_orc
							skill = 2
							discount = yes
						}
					}
				}
			}
			else = {
				random_list = {
					1 = {
						define_advisor = {
							type = army_reformer
							culture = brown_orc
							skill = 1
							discount = yes
						}
					}
					1 = {
						define_advisor = {
							type = commandant
							culture = brown_orc
							skill = 1
							discount = yes
						}
					}
				}
			}
		}
		else = {
			if = {
				limit = { monthly_income = 50 }
				random_list = {
					1 = {
						define_advisor = {
							type = army_reformer
							culture = green_orc
							skill = 3
							discount = yes
						}
					}
					1 = {
						define_advisor = {
							type = commandant
							culture = green_orc
							skill = 3
							discount = yes
						}
					}
				}
			}
			else_if = {
				limit = { monthly_income = 25 }
				random_list = {
					1 = {
						define_advisor = {
							type = army_reformer
							culture = green_orc
							skill = 2
							discount = yes
						}
					}
					1 = {
						define_advisor = {
							type = commandant
							culture = green_orc
							skill = 2
							discount = yes
						}
					}
				}
			}
			else = {
				random_list = {
					1 = {
						define_advisor = {
							type = army_reformer
							culture = green_orc
							skill = 1
							discount = yes
						}
					}
					1 = {
						define_advisor = {
							type = commandant
							culture = green_orc
							skill = 1
							discount = yes
						}
					}
				}
			}
		}
	}

	# A true exemplar of their race
	option = {
		name = orcish_tolerance_events.8.b
		ai_chance = {
			factor = 50
			modifier = {
				factor = 2
				wants_to_increase_tolerance_orcish = yes
			}
		}
		medium_increase_of_orcish_tolerance_effect = yes
	}

	# We dun give a shit
	option = {
		name = orcish_tolerance_events.8.c
		ai_chance = {
			factor = 50
			modifier = {
				factor = 2
				wants_to_decrease_tolerance_orcish = yes
			}
		}
		small_decrease_of_orcish_tolerance_effect = yes
	}

	after = {
		clr_country_flag = orcish_advisor_culture_set
	}
}

# Clan courts
country_event = {
	id = orcish_tolerance_events.9
	title = orcish_tolerance_events.9.t
	desc = {
		desc = orcish_tolerance_events.6.dOrc
		trigger = { culture_group = orcish }
	}
	desc = orcish_tolerance_events.9.d
	picture = LIBERUM_VETO_eventPicture

	is_triggered_only = yes

	immediate = {
		hidden_effect = {
			random_owned_province = {
				limit = { 
					has_orcish_minority_trigger = yes
				}
				save_event_target_as = orc_clan_courts_province
			}
		}
	}

	goto = horc_clan_courts_province

	# Maybe we can learn from them as well
	option = {
		name = orcish_tolerance_events.9.a
		ai_chance = {
			factor = 50
			modifier = {
				factor = 0.5
				wants_to_decrease_tolerance_orcish = yes
			}
		}
		medium_increase_of_orcish_tolerance_effect = yes
		event_target:orc_clan_courts_province = {
			add_province_modifier = {
				name = orcish_clan_courts
				duration = 1825
			}
		}
		reduce_legitimacy_medium_effect = yes
	}
	# Let them do what they want
	option = {
		name = orcish_tolerance_events.9.b
		ai_chance = {
			factor = 50
		}
		event_target:orc_clan_courts_province = {
			add_province_modifier = {
				name = orcish_clan_courts
				duration = 365
			}
		}
	}
	# Crack down on their savage practices!
	option = {
		name = orcish_tolerance_events.9.c
		ai_chance = {
			factor = 50
			modifier = {
				factor = 0.5
				wants_to_increase_tolerance_orcish = yes
			}
		}
		medium_decrease_of_orcish_tolerance_effect = yes
		every_owned_province = {
			limit = { has_any_orcish_pop_trigger = yes }
			add_unrest = 5
		}
	}
}

# New Half-orc pop
country_event = {
	id = orcish_tolerance_events.10
	title = orcish_tolerance_events.10.t
	desc = orcish_tolerance_events.10.d
	picture = REFUGEES_ESCAPING_eventPicture
	goto = orcish_half_orc_province
	
	is_triggered_only = yes
	
	mean_time_to_happen = {
		days = 1
	}
	
	immediate = {
		hidden_effect = {
			random_owned_province = {
				limit = {
					has_any_human_pop_trigger = yes
					has_any_orcish_pop_trigger = yes
				}
				save_event_target_as = orcish_half_orc_province
			}
			if = {
				limit = {
					event_target:orcish_half_orc_province = {
						has_orcish_minority_trigger = yes
						culture_is_human = yes
					}
				}
				event_target:orcish_half_orc_province = {
					remove_orcish_minority_size_effect = yes
					add_half_orcish_minority_size_effect = yes
				}
			}
			
			if = {
				limit = {
					event_target:orcish_half_orc_province = {
						has_human_minority_trigger = yes
						culture_group = orcish
					}
				}
				event_target:orcish_half_orc_province = {
					remove_human_minority_size_effect = yes
					add_half_orcish_minority_size_effect = yes
				}
			}
		}
	}
	
	#Make em
	option = {		
		name = orcish_tolerance_events.10.a
		tooltip = {
			if = {
				limit = {
					event_target:orcish_half_orc_province = {
						has_orcish_minority_trigger = yes
						culture_is_human = yes
					}
				}
				event_target:orcish_half_orc_province = {
					remove_orcish_minority_size_effect = yes
					add_half_orcish_minority_size_effect = yes
				}
			}
			if = {
				limit = {
					event_target:orcish_half_orc_province = {
						has_human_minority_trigger = yes
						culture_group = orcish
					}
				}
				event_target:orcish_half_orc_province = {
					remove_human_minority_size_effect = yes
					add_half_orcish_minority_size_effect = yes
				}
			}
		}
	}
}

#Orcish Ambushers
country_event = {
	id = orcish_tolerance_events.11
	title = orcish_tolerance_events.11.t
	desc = orcish_tolerance_events.11.d
	picture = REFUGEES_ESCAPING_eventPicture
	goto = orcish_ambusher_province
	
	is_triggered_only = yes
	
	immediate = {
		random_owned_province = {
			limit = {
				has_orcish_minority_trigger = yes
			}
			save_event_target_as = orcish_ambusher_province
		}
	}
	
	# Appease them
	option = {
		name = orcish_tolerance_events.11.a
		small_increase_of_orcish_tolerance_effect = yes
		add_treasury = -50
		event_target:orcish_ambusher_province = {
			add_province_modifier = {
				name = orcish_ambushers
				duration = 1825
			}
		}
	}
	
	# Some patrols will do the work
	option = {
		name = orcish_tolerance_events.11.b
		small_decrease_of_orcish_tolerance_effect = yes
		add_manpower = -1
		event_target:orcish_ambusher_province = {
			add_province_modifier = {
				name = orcish_ambushers
				duration = 1095
			}
		}
	}
	
	# Build watchtowers along the road
	option = {
		name = orcish_tolerance_events.11.c
		small_decrease_of_orcish_tolerance_effect = yes
		add_manpower = -2
		add_mil_power = -10
	}
}