po_destroy_monster = {
	category = 6
	power_projection = humiliated_rival 
	power_cost_base = 0.0 
	prestige_base = 0.01 # Prestige = WS cost * this so 5 prestige
	ae_base = 3
	warscore_cost = {
		all_provinces = 0.0
		no_provinces = 50.0
		owner_keeps = 0.0
		conquered = 0.0
		returned_core = 0.0
		released_nation = 0.0
		cancelled_subject = 0.0 
		concede_colonial_region = 0.0
	}
	warscore_cap = 50
	requires_demand_independence = yes 
	is_make_subject = yes
	requires_is_allowed = yes
	
	is_visible = {
		FROM = { has_reform = greentide_horde }
		has_reform = adventurer_reform
	}
	is_allowed = { 
		FROM = {
			capital_scope = {
				controlled_by = ROOT
			}
		}
		FROM = {
			NOT = { num_of_cities = 2 }
			custom_trigger_tooltip = {
				tooltip = tribal_land_max_tt
				NOT = {
					calc_true_if = {
						escann_superregion = {
							type = all
							OR = {
								tribal_land_of = FROM
								owned_by = FROM
							}
						}
						forlorn_vale_region = {
							type = all
							OR = {
								tribal_land_of = FROM
								owned_by = FROM
							}
						}
						amount = 2
					}
				}
			}
		}
	}
	effect = {
		set_country_flag = destroyed_tribe
		FROM = { 
			capital_scope = {
				cede_province = ---
				if = {
					limit = {
						ROOT = {
							NOT = { has_reform = found_our_nation }
						}
					}
					change_tribal_land = ROOT
				}
			}
		}
	}
	ai_weight = { 
		export_to_variable = {
			variable_name = ai_value 
			value = 100 # Should always want this
		}
		# Only if it's possible to take
		limit = { 
			FROM = { 
				NOT = { num_of_cities = 2 }
			}
			NOT = {
				calc_true_if = {
					escann_superregion = {
						type = all
						OR = {
							tribal_land_of = FROM
							owned_by = FROM
						}
					}
					forlorn_vale_region = {
						type = all
						OR = {
							tribal_land_of = FROM
							owned_by = FROM
						}
					}
					amount = 2
				}
			}
		}
	}
}

